Climate Trend Analysis
…
we need to check this: Some values areNA" in temperature and precipitation; these have been trimmed automatically by ggplot, but this may not be the case for all functions. In general, youll want to check meta data to see how missing data is labelled: -999 or NA are common choices." Ours is done as NA

Determining whether there is a trend

climyearmean <- climtrendtidy %>%
  group_by(YEAR) %>%
  summarize(tmax= mean(TMAX), 
            tmin= mean(TMIN),
            precip= sum(PRCP))

climyearmean

## # A tibble: 73 x 4
##     YEAR  tmax  tmin precip
##    <dbl> <dbl> <dbl>  <dbl>
##  1  1950  96.5  62.5   0.31
##  2  1951  88.7  55.9   1.91
##  3  1952  88.2  57.3   5.47
##  4  1953  89.2  56.3   0.32
##  5  1954  89.8  57.1   1.76
##  6  1955  87.2  56.0   2.48
##  7  1956  89.2  56.2   0.49
##  8  1957  88.1  58.8   2.22
##  9  1958  90.0  58.9   2.94
## 10  1959  89.6  58.2   2.65
## # ... with 63 more rows
…
climseasonmean <- climtrendtidy %>%
  group_by(YEAR, season) %>%
  summarize(tmax= mean(TMAX), 
            tmin= mean(TMIN),
            precip= sum(PRCP)) %>% 
  filter(season == "2")

## `summarise()` has grouped output by 'YEAR'. You can override using the `.groups` argument.

climseasonmean

## # A tibble: 73 x 5
## # Groups:   YEAR [73]
##     YEAR season  tmax  tmin precip
##    <dbl>  <dbl> <dbl> <dbl>  <dbl>
##  1  1950      2 102.   69.0   0.26
##  2  1951      2  99    66.7   0.88
##  3  1952      2 101.   68.6   0.43
##  4  1953      2  97.6  66.0   0.16
##  5  1954      2  98.9  66.8   0.83
##  6  1955      2  97.2  66.0   0.89
##  7  1956      2  98.3  66.9   0.41
##  8  1957      2  97.7  68.5   0.79
##  9  1958      2 100.   69.3   0.74
## 10  1959      2  98.9  68.3   0.35
## # ... with 63 more rows
…
